{
  "minifier": {
    "name": "standard-minifier-js",
    "version": "2.8.0"
  },
  "totalMinifiedBytes": 3098453,
  "totalMinifiedGzipBytes": 894942,
  "minifiedBytesByPackage": {
    "packages/meteor.js": 9329,
    "packages/meteor-base.js": 31,
    "packages/mobile-experience.js": 37,
    "packages/modules-runtime.js": 4495,
    "packages/modules.js": [
      2453162,
      {
        "node_modules": {
          "meteor": {
            "modules": {
              "client.js": 126,
              "legacy.js": 59,
              "css.js": 263,
              "install-packages.js": 2128,
              "process.js": 415,
              "reify.js": 83,
              "stubs.js": 99,
              "node_modules": {
                "@meteorjs": {
                  "reify": {
                    "lib": {
                      "runtime": {
                        "index.js": 954,
                        "utils.js": 1309,
                        "entry.js": 3503
                      }
                    }
                  }
                },
                "meteor-babel-helpers": {
                  "package.json": 90,
                  "index.js": 404
                }
              }
            }
          },
          "@amcharts": {
            "amcharts4": {
              "package.json": 215,
              "core.js": 11521,
              ".internal": {
                "core": {
                  "System.js": 4799,
                  "Registry.js": 3465,
                  "utils": {
                    "EventDispatcher.js": 4573,
                    "Disposer.js": 1282,
                    "Array.js": 2762,
                    "Math.js": 5515,
                    "Type.js": 2724,
                    "Percent.js": 525,
                    "AsyncPending.js": 827,
                    "Dictionary.js": 4206,
                    "Object.js": 1409,
                    "Iterator.js": 2939,
                    "String.js": 362,
                    "Cache.js": 810,
                    "List.js": 8788,
                    "SortedList.js": 4541,
                    "Adapter.js": 2968,
                    "Number.js": 97,
                    "Order.js": 189,
                    "Color.js": 2285,
                    "Colors.js": 8196,
                    "Utils.js": 9960,
                    "Browser.js": 214,
                    "Strings.js": 320,
                    "Ease.js": 3511,
                    "Animation.js": 6581,
                    "DOM.js": 6199,
                    "InterfaceColorSet.js": 1271,
                    "Keyboard.js": 1046,
                    "Time.js": 4220,
                    "ResizeSensor.js": 1884,
                    "Log.js": 467,
                    "Language.js": 2485,
                    "Validatable.js": 778,
                    "Net.js": 1187,
                    "Responsive.js": 6471,
                    "Morpher.js": 5563,
                    "ColorSet.js": 4157,
                    "PatternSet.js": 3056,
                    "Plugin.js": 384,
                    "Instance.js": 6747
                  },
                  "Container.js": 21041,
                  "Sprite.js": 93029,
                  "SpriteState.js": 2878,
                  "Base.js": 10296,
                  "SpriteEvents.js": 2688,
                  "defs": {
                    "SVGDefaults.js": 300
                  },
                  "Options.js": 366,
                  "rendering": {
                    "Paper.js": 1479,
                    "AMElement.js": 3916,
                    "Group.js": 1047,
                    "SVGContainer.js": 4183,
                    "fills": {
                      "Pattern.js": 6274,
                      "LinearGradient.js": 2431,
                      "RadialGradient.js": 2696,
                      "LinearGradientModifier.js": 618,
                      "GradientModifier.js": 2106,
                      "ColorModifier.js": 435,
                      "RadialGradientModifier.js": 618,
                      "LinePattern.js": 1402,
                      "CirclePattern.js": 764,
                      "RectPattern.js": 1072
                    },
                    "Path.js": 4157,
                    "filters": {
                      "DropShadowFilter.js": 2318,
                      "Filter.js": 2669,
                      "LightenFilter.js": 794,
                      "ColorizeFilter.js": 1153,
                      "DesaturateFilter.js": 786,
                      "BlurFilter.js": 777,
                      "FocusFilter.js": 2038
                    },
                    "Smoothing.js": 3903
                  },
                  "elements": {
                    "Popup.js": 12705,
                    "PopupCSS.js": 1941,
                    "Modal.js": 371,
                    "Rectangle.js": 938,
                    "Button.js": 2269,
                    "Label.js": 16393,
                    "RoundedRectangle.js": 2677,
                    "Circle.js": 1268,
                    "Ellipse.js": 867,
                    "Image.js": 1579,
                    "Line.js": 2107,
                    "PointedRectangle.js": 1836,
                    "PointedShape.js": 1396,
                    "Polyarc.js": 1742,
                    "Polyline.js": 1858,
                    "Polygon.js": 2766,
                    "Polyspline.js": 2954,
                    "Preloader.js": 2557,
                    "Slice.js": 4848,
                    "ResizeButton.js": 1190,
                    "CloseButton.js": 1655,
                    "SwitchButton.js": 3044,
                    "Scrollbar.js": 13815,
                    "Slider.js": 998,
                    "TextLink.js": 825,
                    "Tooltip.js": 7839,
                    "Trapezoid.js": 2682,
                    "Triangle.js": 1179,
                    "WavedCircle.js": 2340,
                    "WavedLine.js": 1346,
                    "WavedRectangle.js": 2728,
                    "ZoomOutButton.js": 1330,
                    "PlayButton.js": 1649,
                    "3d": {
                      "Cone.js": 2742,
                      "Rectangle3D.js": 3806,
                      "Slice3D.js": 4027
                    },
                    "AmChartsLogo.js": 1688,
                    "Grip.js": 2872
                  },
                  "interaction": {
                    "Interaction.js": 32336,
                    "InteractionObject.js": 8828,
                    "InteractionObjectEvents.js": 1731,
                    "InteractionKeyboardObject.js": 1179,
                    "Inertia.js": 1367,
                    "Mouse.js": 664
                  },
                  "formatters": {
                    "NumberFormatter.js": 9338,
                    "TextFormatter.js": 3975,
                    "DateFormatter.js": 13915,
                    "DurationFormatter.js": 7158
                  },
                  "export": {
                    "Export.js": 49349,
                    "ExportMenu.js": 14440,
                    "ExportCSS.js": 3045
                  },
                  "Component.js": 20423,
                  "data": {
                    "DataSource.js": 5729,
                    "DataLoader.js": 1832,
                    "CSVParser.js": 1857,
                    "DataParser.js": 1466,
                    "JSONParser.js": 910
                  },
                  "DataItem.js": 10222
                },
                "pdfmake": {
                  "vfs_fonts.js": 2
                },
                "canvg": {
                  "index.js": 2013
                },
                "charts": {
                  "Legend.js": 12960,
                  "elements": {
                    "HeatLegend.js": 7372,
                    "Tick.js": 784,
                    "Bullet.js": 2036
                  },
                  "axes": {
                    "ValueAxis.js": 24658,
                    "Axis.js": 20751,
                    "AxisBreak.js": 3962,
                    "AxisRendererY.js": 5994,
                    "AxisRenderer.js": 9289,
                    "AxisLine.js": 677,
                    "AxisFill.js": 2028,
                    "Grid.js": 1441,
                    "AxisLabel.js": 958,
                    "AxisTick.js": 1192,
                    "AxisBullet.js": 752,
                    "ValueAxisBreak.js": 738,
                    "AxisRendererX.js": 5669
                  },
                  "types": {
                    "MapChart.js": 23085,
                    "SerialChart.js": 4294
                  },
                  "Chart.js": 5500,
                  "series": {
                    "Series.js": 16183
                  },
                  "map": {
                    "MapSeries.js": 6919,
                    "MapImage.js": 1564,
                    "MapObject.js": 2401,
                    "MapPolygon.js": 4501,
                    "MapUtils.js": 1513,
                    "MapPolygonSeries.js": 5915,
                    "projections": {
                      "Projection.js": 3115,
                      "Mercator.js": 426,
                      "Miller.js": 431,
                      "Eckert6.js": 434,
                      "Orthographic.js": 438,
                      "Stereographic.js": 441,
                      "Albers.js": 420,
                      "AlbersUSA.js": 429,
                      "NaturalEarth1.js": 441,
                      "AzimuthalEqualArea.js": 456,
                      "EqualEarth.js": 432
                    },
                    "SmallMap.js": 3912,
                    "Geo.js": 656,
                    "GraticuleSeries.js": 2585,
                    "MapLineSeries.js": 4439,
                    "MapLine.js": 6609,
                    "MapLineObject.js": 1368,
                    "MapImageSeries.js": 4653,
                    "Graticule.js": 405,
                    "MapSpline.js": 682,
                    "MapArc.js": 623,
                    "MapSplineSeries.js": 834,
                    "MapArcSeries.js": 810,
                    "ZoomControl.js": 4978,
                    "projections.js": 718
                  }
                },
                "themes": {
                  "animated.js": 1370
                }
              },
              "lang": {
                "en.js": 4494
              },
              "maps.js": 2665,
              "themes": {
                "animated.js": 79
              }
            },
            "amcharts4-geodata": {
              "worldIndiaLow.js": 246027,
              "india2020Low.js": 72141
            }
          },
          "tslib": {
            "package.json": 97,
            "tslib.js": 8378
          },
          "pdfmake": {
            "build": {
              "pdfmake.js": 2
            }
          },
          "core-js": {
            "modules": {
              "es.array.map.js": 102,
              "es.regexp.exec.js": 50,
              "es.string.match.js": 293,
              "es.string.replace.js": 511,
              "es.string.starts-with.js": 290,
              "es.array.join.js": 161,
              "es.symbol.js": 1309,
              "es.array.filter.js": 102,
              "es.array.for-each.js": 53,
              "es.object.get-own-property-descriptor.js": 154,
              "es.object.get-own-property-descriptors.js": 188,
              "es.object.keys.js": 96,
              "web.dom-collections.for-each.js": 168,
              "es.array.concat.js": 357,
              "es.array.every.js": 92,
              "es.array.reduce.js": 152,
              "es.object.to-string.js": 94,
              "es.promise.js": 912,
              "es.string.split.js": 532,
              "es.function.name.js": 132,
              "es.reflect.construct.js": 239,
              "es.regexp.to-string.js": 228,
              "es.array.from.js": 95,
              "es.array.includes.js": 87,
              "es.array.some.js": 92,
              "es.string.includes.js": 192,
              "es.string.iterator.js": 119,
              "es.string.trim.js": 84,
              "es.array.index-of.js": 128,
              "es.array.reverse.js": 84,
              "es.number.constructor.js": 508,
              "es.array.fill.js": 83,
              "es.reflect.delete-property.js": 98,
              "es.array.iterator.js": 154,
              "web.dom-collections.iterator.js": 202,
              "es.symbol.description.js": 312,
              "es.symbol.iterator.js": 41,
              "es.array.slice.js": 365,
              "es.map.js": 60,
              "es.reflect.apply.js": 125,
              "es.reflect.get-prototype-of.js": 127
            },
            "internals": {
              "export.js": 237,
              "global.js": 2,
              "object-get-own-property-descriptor.js": 270,
              "descriptors.js": 22,
              "fails.js": 2,
              "function-call.js": 2,
              "object-property-is-enumerable.js": 2,
              "create-property-descriptor.js": 2,
              "to-indexed-object.js": 71,
              "indexed-object.js": 108,
              "function-uncurry-this.js": 2,
              "classof-raw.js": 38,
              "require-object-coercible.js": 23,
              "to-property-key.js": 54,
              "to-primitive.js": 198,
              "is-object.js": 28,
              "is-callable.js": 2,
              "is-symbol.js": 149,
              "get-built-in.js": 50,
              "object-is-prototype-of.js": 38,
              "use-symbol-as-uid.js": 30,
              "native-symbol.js": 55,
              "engine-v8-version.js": 56,
              "engine-user-agent.js": 29,
              "get-method.js": 27,
              "a-callable.js": 79,
              "try-to-string.js": 23,
              "ordinary-to-primitive.js": 104,
              "well-known-symbol.js": 158,
              "shared.js": 52,
              "is-pure.js": 2,
              "shared-store.js": 49,
              "set-global.js": 23,
              "has-own-property.js": 63,
              "to-object.js": 63,
              "uid.js": 38,
              "ie8-dom-define.js": 88,
              "document-create-element.js": 48,
              "create-non-enumerable-property.js": 108,
              "object-define-property.js": 136,
              "an-object.js": 48,
              "redefine.js": 243,
              "inspect-source.js": 93,
              "internal-state.js": 275,
              "native-weak-map.js": 80,
              "shared-key.js": 42,
              "hidden-keys.js": 2,
              "function-name.js": 60,
              "copy-constructor-properties.js": 145,
              "own-keys.js": 183,
              "object-get-own-property-names.js": 66,
              "object-keys-internal.js": 160,
              "array-includes.js": 103,
              "to-absolute-index.js": 39,
              "to-integer-or-infinity.js": 2,
              "length-of-array-like.js": 26,
              "to-length.js": 39,
              "enum-bug-keys.js": 2,
              "object-get-own-property-symbols.js": 2,
              "is-forced.js": 49,
              "array-iteration.js": 202,
              "function-bind-context.js": 64,
              "array-species-create.js": 42,
              "array-species-constructor.js": 135,
              "is-array.js": 28,
              "is-constructor.js": 167,
              "classof.js": 147,
              "to-string-tag-support.js": 34,
              "array-method-has-species-support.js": 88,
              "regexp-exec.js": 318,
              "to-string.js": 46,
              "regexp-flags.js": 26,
              "regexp-sticky-helpers.js": 44,
              "object-create.js": 207,
              "object-define-properties.js": 151,
              "object-keys.js": 66,
              "html.js": 29,
              "regexp-unsupported-dot-all.js": 44,
              "regexp-unsupported-ncg.js": 44,
              "fix-regexp-well-known-symbol-logic.js": 217,
              "advance-string-index.js": 33,
              "string-multibyte.js": 141,
              "regexp-exec-abstract.js": 158,
              "function-apply.js": 2,
              "get-substitution.js": 63,
              "not-a-regexp.js": 48,
              "is-regexp.js": 86,
              "correct-is-regexp-logic.js": 34,
              "array-method-is-strict.js": 22,
              "object-get-own-property-names-external.js": 133,
              "array-slice.js": 38,
              "well-known-symbol-wrapped.js": 34,
              "define-well-known-symbol.js": 132,
              "path.js": 23,
              "set-to-string-tag.js": 104,
              "array-for-each.js": 70,
              "create-property.js": 112,
              "dom-iterables.js": 2,
              "dom-token-list-prototype.js": 40,
              "array-reduce.js": 140,
              "engine-is-node.js": 50,
              "object-to-string.js": 61,
              "native-promise-constructor.js": 23,
              "redefine-all.js": 25,
              "object-set-prototype-of.js": 99,
              "a-possible-prototype.js": 50,
              "set-species.js": 127,
              "an-instance.js": 61,
              "iterate.js": 350,
              "is-array-iterator-method.js": 59,
              "iterators.js": 2,
              "get-iterator.js": 167,
              "get-iterator-method.js": 108,
              "iterator-close.js": 81,
              "check-correctness-of-iteration.js": 34,
              "species-constructor.js": 88,
              "a-constructor.js": 82,
              "task.js": 315,
              "engine-is-ios.js": 34,
              "microtask.js": 263,
              "engine-is-ios-pebble.js": 56,
              "engine-is-webos-webkit.js": 34,
              "promise-resolve.js": 89,
              "new-promise-capability.js": 27,
              "host-report-errors.js": 23,
              "perform.js": 2,
              "engine-is-browser.js": 2,
              "function-bind.js": 170,
              "array-from.js": 362,
              "call-with-safe-iteration-closing.js": 56,
              "add-to-unscopables.js": 101,
              "define-iterator.js": 443,
              "create-iterator-constructor.js": 160,
              "iterators-core.js": 197,
              "object-get-prototype-of.js": 173,
              "correct-prototype-getter.js": 22,
              "string-trim.js": 130,
              "whitespaces.js": 2,
              "string-trim-forced.js": 78,
              "inherit-if-required.js": 92,
              "this-number-value.js": 38,
              "array-fill.js": 95,
              "collection.js": 401,
              "internal-metadata.js": 360,
              "object-is-extensible.js": 117,
              "array-buffer-non-extensible.js": 22,
              "freezing.js": 22,
              "collection-strong.js": 331
            }
          },
          "@babel": {
            "runtime": {
              "helpers": {
                "slicedToArray.js": 262,
                "arrayWithHoles.js": 125,
                "iterableToArrayLimit.js": 394,
                "unsupportedIterableToArray.js": 401,
                "arrayLikeToArray.js": 188,
                "nonIterableRest.js": 256,
                "asyncToGenerator.js": 2,
                "defineProperty.js": 202,
                "classCallCheck.js": 2,
                "createClass.js": 2,
                "possibleConstructorReturn.js": 62,
                "typeof.js": 445,
                "assertThisInitialized.js": 205,
                "getPrototypeOf.js": 2,
                "inherits.js": 23,
                "setPrototypeOf.js": 239,
                "toConsumableArray.js": 256,
                "arrayWithoutHoles.js": 161,
                "iterableToArray.js": 196,
                "nonIterableSpread.js": 251,
                "get.js": 22,
                "superPropBase.js": 23,
                "createForOfIteratorHelperLoose.js": 558,
                "inheritsLoose.js": 201,
                "objectSpread2.js": 688
              },
              "regenerator": {
                "index.js": 23
              },
              "package.json": 25299
            }
          },
          "regenerator-runtime": {
            "package.json": 21,
            "runtime.js": 2
          },
          "raf": {
            "package.json": 19,
            "index.js": 19
          },
          "performance-now": {
            "package.json": 33,
            "lib": {
              "performance-now.js": 2
            }
          },
          "rgbcolor": {
            "package.json": 21,
            "index.js": 2
          },
          "stackblur-canvas": {
            "package.json": 58,
            "dist": {
              "stackblur.js": 2
            }
          },
          "xlsx": {
            "package.json": 117,
            "xlsx.js": 57,
            "dist": {
              "cpexcel.js": 2
            },
            "jszip.js": 2
          },
          "meteor-node-stubs": {
            "deps": {
              "fs.js": 2,
              "crypto.js": 41,
              "stream.js": 37,
              "util.js": 32,
              "events.js": 27,
              "process.js": 38
            },
            "wrappers": {
              "crypto.js": 99
            },
            "node_modules": {
              "buffer": {
                "package.json": 76,
                "index.js": 25543
              },
              "base64-js": {
                "package.json": 79,
                "index.js": 1436
              },
              "ieee754": {
                "package.json": 77,
                "index.js": 974
              },
              "crypto-browserify": {
                "package.json": 92,
                "index.js": 1874
              },
              "randombytes": {
                "package.json": 102,
                "browser.js": 575
              },
              "safe-buffer": {
                "package.json": 81,
                "index.js": 864
              },
              "create-hash": {
                "package.json": 102,
                "browser.js": 396,
                "md5.js": 92
              },
              "inherits": {
                "package.json": 115,
                "inherits_browser.js": 331
              },
              "md5.js": {
                "package.json": 76,
                "index.js": 3217
              },
              "hash-base": {
                "package.json": 79,
                "index.js": 1443
              },
              "readable-stream": {
                "package.json": 349,
                "errors.js": 80,
                "readable.js": 82,
                "lib": {
                  "internal": {
                    "streams": {
                      "from.js": 99,
                      "stream.js": 101,
                      "stream-browser.js": 53,
                      "buffer_list.js": 3076,
                      "destroy.js": 1486,
                      "state.js": 370,
                      "async_iterator.js": 1944,
                      "end-of-stream.js": 1454,
                      "from-browser.js": 105,
                      "pipeline.js": 1044
                    }
                  },
                  "_stream_readable.js": 12083,
                  "_stream_duplex.js": 1388,
                  "_stream_writable.js": 7568,
                  "_stream_transform.js": 1957,
                  "_stream_passthrough.js": 212
                },
                "readable-browser.js": 364,
                "errors-browser.js": 2132
              },
              "events": {
                "package.json": 79,
                "events.js": 6085
              },
              "util": {
                "package.json": 141,
                "support": {
                  "isBuffer.js": 78,
                  "types.js": 3958,
                  "isBufferBrowser.js": 158
                },
                "util.js": 8009
              },
              "is-arguments": {
                "package.json": 82,
                "index.js": 497
              },
              "call-bind": {
                "callBound.js": 200,
                "package.json": 79,
                "index.js": 580
              },
              "get-intrinsic": {
                "package.json": 83,
                "index.js": 7706
              },
              "has-symbols": {
                "package.json": 81,
                "index.js": 235,
                "shams.js": 878
              },
              "function-bind": {
                "package.json": 80,
                "index.js": 96,
                "implementation.js": 719
              },
              "has": {
                "package.json": 70,
                "src": {
                  "index.js": 120
                }
              },
              "is-generator-function": {
                "package.json": 91,
                "index.js": 521
              },
              "which-typed-array": {
                "package.json": 87,
                "index.js": 845
              },
              "foreach": {
                "package.json": 77,
                "index.js": 315
              },
              "available-typed-arrays": {
                "package.json": 92,
                "index.js": 318
              },
              "es-abstract": {
                "helpers": {
                  "getOwnPropertyDescriptor.js": 147
                }
              },
              "is-typed-array": {
                "package.json": 84,
                "index.js": 944
              },
              "util-deprecate": {
                "package.json": 104,
                "browser.js": 397
              },
              "string_decoder": {
                "package.json": 97,
                "lib": {
                  "string_decoder.js": 3589
                }
              },
              "ripemd160": {
                "package.json": 78,
                "index.js": 2758
              },
              "sha.js": {
                "package.json": 61,
                "index.js": 292,
                "sha.js": 1077,
                "hash.js": 982,
                "sha1.js": 1113,
                "sha224.js": 623,
                "sha256.js": 2153,
                "sha384.js": 809,
                "sha512.js": 4407
              },
              "cipher-base": {
                "package.json": 81,
                "index.js": 1404
              },
              "stream-browserify": {
                "package.json": 87,
                "index.js": 1311
              },
              "create-hmac": {
                "package.json": 104,
                "browser.js": 912,
                "legacy.js": 568
              },
              "browserify-sign": {
                "algos.js": 59,
                "browser": {
                  "algorithms.json": 1938,
                  "index.js": 1361,
                  "sign.js": 2252,
                  "curves.json": 181,
                  "verify.js": 1422
                },
                "package.json": 112
              },
              "pbkdf2": {
                "package.json": 154,
                "index.js": 64,
                "lib": {
                  "sync.js": 73,
                  "async.js": 1550,
                  "precondition.js": 305,
                  "default-encoding.js": 231,
                  "sync-browser.js": 1284,
                  "to-buffer.js": 273
                },
                "browser.js": 71
              },
              "browserify-cipher": {
                "package.json": 108,
                "browser.js": 1070
              },
              "browserify-des": {
                "package.json": 84,
                "index.js": 740,
                "modes.js": 199
              },
              "des.js": {
                "package.json": 78,
                "lib": {
                  "des.js": 144,
                  "des": {
                    "utils.js": 3337,
                    "cipher.js": 1950,
                    "des.js": 1633,
                    "cbc.js": 850,
                    "ede.js": 815
                  }
                }
              },
              "minimalistic-assert": {
                "package.json": 89,
                "index.js": 178
              },
              "browserify-aes": {
                "browser.js": 327,
                "encrypter.js": 1759,
                "modes": {
                  "index.js": 221,
                  "ecb.js": 132,
                  "cbc.js": 226,
                  "cfb.js": 479,
                  "cfb8.js": 274,
                  "cfb1.js": 444,
                  "ofb.js": 284,
                  "ctr.js": 539,
                  "list.json": 1839
                },
                "incr32.js": 147,
                "authCipher.js": 2029,
                "aes.js": 2904,
                "ghash.js": 1093,
                "streamCipher.js": 416,
                "decrypter.js": 1955,
                "package.json": 105
              },
              "buffer-xor": {
                "package.json": 80,
                "index.js": 135
              },
              "evp_bytestokey": {
                "package.json": 84,
                "index.js": 580
              },
              "diffie-hellman": {
                "package.json": 105,
                "browser.js": 592,
                "lib": {
                  "generatePrime.js": 1016,
                  "primes.json": 6963,
                  "dh.js": 2058
                },
                "node_modules": {
                  "bn.js": {
                    "package.json": 97,
                    "lib": {
                      "bn.js": 43572
                    }
                  }
                }
              },
              "miller-rabin": {
                "package.json": 83,
                "lib": {
                  "mr.js": 1281
                },
                "node_modules": {
                  "bn.js": {
                    "package.json": 97,
                    "lib": {
                      "bn.js": 43572
                    }
                  }
                }
              },
              "brorand": {
                "package.json": 97,
                "index.js": 921
              },
              "browserify-rsa": {
                "package.json": 84,
                "index.js": 721
              },
              "bn.js": {
                "package.json": 96,
                "lib": {
                  "bn.js": 44579
                }
              },
              "elliptic": {
                "package.json": 1122,
                "lib": {
                  "elliptic.js": 242,
                  "elliptic": {
                    "utils.js": 1074,
                    "curve": {
                      "index.js": 121,
                      "base.js": 4725,
                      "short.js": 12702,
                      "mont.js": 2632,
                      "edwards.js": 6205
                    },
                    "curves.js": 5094,
                    "precomputed": {
                      "secp256k1.js": 26155
                    },
                    "ec": {
                      "index.js": 3205,
                      "key.js": 1734,
                      "signature.js": 1632
                    },
                    "eddsa": {
                      "index.js": 1811,
                      "key.js": 1368,
                      "signature.js": 909
                    }
                  }
                },
                "node_modules": {
                  "bn.js": {
                    "package.json": 97,
                    "lib": {
                      "bn.js": 43572
                    }
                  }
                }
              },
              "minimalistic-crypto-utils": {
                "package.json": 99,
                "lib": {
                  "utils.js": 621
                }
              },
              "hash.js": {
                "package.json": 80,
                "lib": {
                  "hash.js": 289,
                  "hash": {
                    "utils.js": 2987,
                    "common.js": 1424,
                    "sha.js": 145,
                    "sha": {
                      "1.js": 953,
                      "common.js": 500,
                      "224.js": 435,
                      "256.js": 1890,
                      "384.js": 526,
                      "512.js": 4502
                    },
                    "ripemd.js": 1973,
                    "hmac.js": 762
                  }
                }
              },
              "hmac-drbg": {
                "package.json": 87,
                "lib": {
                  "hmac-drbg.js": 1805
                }
              },
              "parse-asn1": {
                "package.json": 80,
                "index.js": 2180,
                "asn1.js": 2284,
                "certificate.js": 1652,
                "aesid.json": 506,
                "fixProc.js": 724
              },
              "asn1.js": {
                "package.json": 80,
                "lib": {
                  "asn1.js": 213,
                  "asn1": {
                    "api.js": 847,
                    "encoders": {
                      "index.js": 73,
                      "der.js": 4497,
                      "pem.js": 379
                    },
                    "base": {
                      "node.js": 9219,
                      "reporter.js": 1609,
                      "buffer.js": 2464,
                      "index.js": 182
                    },
                    "constants": {
                      "der.js": 604,
                      "index.js": 178
                    },
                    "decoders": {
                      "index.js": 73,
                      "der.js": 4074,
                      "pem.js": 649
                    }
                  }
                },
                "node_modules": {
                  "bn.js": {
                    "package.json": 97,
                    "lib": {
                      "bn.js": 43572
                    }
                  }
                }
              },
              "safer-buffer": {
                "package.json": 82,
                "safer.js": 1214
              },
              "create-ecdh": {
                "package.json": 102,
                "browser.js": 1676,
                "node_modules": {
                  "bn.js": {
                    "package.json": 97,
                    "lib": {
                      "bn.js": 43572
                    }
                  }
                }
              },
              "public-encrypt": {
                "package.json": 105,
                "browser.js": 222,
                "publicEncrypt.js": 1080,
                "mgf.js": 282,
                "xor.js": 96,
                "node_modules": {
                  "bn.js": {
                    "package.json": 97,
                    "lib": {
                      "bn.js": 43572
                    }
                  }
                },
                "withPublic.js": 183,
                "privateDecrypt.js": 1290
              },
              "randomfill": {
                "package.json": 101,
                "browser.js": 1667
              },
              "process": {
                "browser.js": 1688
              }
            },
            "package.json": 87,
            "index.js": 392,
            "map.json": 1008
          },
          "d3-geo": {
            "package.json": 104,
            "dist": {
              "d3-geo.js": 36037
            }
          },
          "d3-array": {
            "package.json": 109,
            "dist": {
              "d3-array.js": 13452
            }
          },
          "polylabel": {
            "package.json": 83,
            "polylabel.js": 1665
          },
          "tinyqueue": {
            "package.json": 101,
            "tinyqueue.js": 1067
          },
          "d3-geo-projection": {
            "package.json": 126,
            "dist": {
              "d3-geo-projection.js": 61472
            }
          },
          "country-reverse-geocoding": {
            "package.json": 118,
            "lib": {
              "country_reverse_geocoding.js": 346809
            }
          },
          "fwk": {
            "package.json": 75,
            "lib": {
              "fwk.js": 491,
              "base.js": 2136,
              "cache.js": 2692,
              "b64.js": 355,
              "lock.js": 717,
              "cfg.js": 745,
              "factory.js": 1164
            }
          },
          "async": {
            "package.json": 79,
            "lib": {
              "async.js": 10020
            }
          },
          "jquery": {
            "package.json": 82,
            "dist": {
              "jquery.js": 90638
            }
          }
        }
      }
    ],
    "packages/modern-browsers.js": 35,
    "packages/babel-compiler.js": 34,
    "packages/react-fast-refresh.js": [
      2953,
      {
        "node_modules": {
          "meteor": {
            "react-fast-refresh": {
              "client.js": 336,
              "client-runtime.js": 1331,
              "node_modules": {
                "react-refresh": {
                  "runtime.js": 92,
                  "cjs": {
                    "react-refresh-runtime.production.min.js": 374,
                    "react-refresh-runtime.development.js": 290
                  }
                }
              }
            }
          }
        }
      }
    ],
    "packages/ecmascript.js": 30,
    "packages/ecmascript-runtime.js": 38,
    "packages/babel-runtime.js": [
      984,
      {
        "node_modules": {
          "meteor": {
            "babel-runtime": {
              "babel-runtime.js": 631
            }
          }
        }
      }
    ],
    "packages/promise.js": [
      5834,
      {
        "node_modules": {
          "meteor": {
            "promise": {
              "modern.js": 25,
              "legacy.js": 97,
              "client.js": 73,
              "extensions.js": 403,
              "node_modules": {
                "promise": {
                  "lib": {
                    "es6-extensions.js": 1373,
                    "core.js": 1838
                  }
                },
                "asap": {
                  "package.json": 249,
                  "raw.js": 63,
                  "browser-raw.js": 684
                },
                "meteor-promise": {
                  "package.json": 121,
                  "promise_client.js": 268
                }
              }
            }
          }
        }
      }
    ],
    "packages/fetch.js": [
      7755,
      {
        "node_modules": {
          "meteor": {
            "fetch": {
              "legacy.js": 112,
              "node_modules": {
                "whatwg-fetch": {
                  "package.json": 82,
                  "fetch.js": 7148
                }
              }
            }
          }
        }
      }
    ],
    "packages/dynamic-import.js": [
      19455,
      {
        "node_modules": {
          "meteor": {
            "dynamic-import": {
              "client.js": 1923,
              "cache.js": 1952,
              "common.js": 62,
              "dynamic-versions.js": 15078
            }
          }
        }
      }
    ],
    "packages/es5-shim.js": [
      28782,
      {
        "node_modules": {
          "meteor": {
            "es5-shim": {
              "client.js": 134,
              "console.js": 291,
              "export_globals.js": 154,
              "import_globals.js": 77,
              "node_modules": {
                "es5-shim": {
                  "es5-shim.js": 22843,
                  "es5-sham.js": 4835
                }
              }
            }
          }
        }
      }
    ],
    "packages/ecmascript-runtime-client.js": [
      123222,
      {
        "node_modules": {
          "meteor": {
            "ecmascript-runtime-client": {
              "modern.js": 766,
              "legacy.js": 1059,
              "node_modules": {
                "core-js": {
                  "es": {
                    "symbol": {
                      "index.js": 858
                    },
                    "map": {
                      "index.js": 217
                    },
                    "set": {
                      "index.js": 217
                    },
                    "array": {
                      "index.js": 1158
                    },
                    "function": {
                      "index.js": 187
                    },
                    "math": {
                      "index.js": 663
                    },
                    "object": {
                      "index.js": 1278
                    },
                    "regexp": {
                      "index.js": 413
                    },
                    "string": {
                      "index.js": 1321
                    },
                    "weak-map": {
                      "index.js": 188
                    },
                    "weak-set": {
                      "index.js": 188
                    }
                  },
                  "modules": {
                    "es.array.concat.js": 961,
                    "es.object.to-string.js": 174,
                    "es.symbol.js": 4691,
                    "es.symbol.async-iterator.js": 80,
                    "es.symbol.description.js": 890,
                    "es.symbol.has-instance.js": 78,
                    "es.symbol.is-concat-spreadable.js": 85,
                    "es.symbol.iterator.js": 75,
                    "es.symbol.match.js": 72,
                    "es.symbol.match-all.js": 75,
                    "es.symbol.replace.js": 74,
                    "es.symbol.search.js": 73,
                    "es.symbol.species.js": 74,
                    "es.symbol.split.js": 72,
                    "es.symbol.to-primitive.js": 78,
                    "es.symbol.to-string-tag.js": 78,
                    "es.symbol.unscopables.js": 78,
                    "es.json.to-string-tag.js": 101,
                    "es.math.to-string-tag.js": 72,
                    "es.reflect.to-string-tag.js": 164,
                    "es.map.js": 213,
                    "es.string.iterator.js": 409,
                    "web.dom-collections.iterator.js": 432,
                    "es.array.iterator.js": 618,
                    "es.set.js": 213,
                    "es.array.from.js": 204,
                    "es.array.is-array.js": 110,
                    "es.array.of.js": 368,
                    "es.array.copy-within.js": 182,
                    "es.array.every.js": 270,
                    "es.array.fill.js": 163,
                    "es.array.filter.js": 283,
                    "es.array.find.js": 315,
                    "es.array.find-index.js": 335,
                    "es.array.flat.js": 404,
                    "es.array.flat-map.js": 401,
                    "es.array.for-each.js": 155,
                    "es.array.includes.js": 266,
                    "es.array.index-of.js": 353,
                    "es.array.join.js": 316,
                    "es.array.last-index-of.js": 156,
                    "es.array.map.js": 274,
                    "es.array.reduce.js": 378,
                    "es.array.reduce-right.js": 389,
                    "es.array.reverse.js": 255,
                    "es.array.slice.js": 784,
                    "es.array.some.js": 267,
                    "es.array.sort.js": 1324,
                    "es.array.species.js": 59,
                    "es.array.splice.js": 923,
                    "es.array.unscopables.flat.js": 69,
                    "es.array.unscopables.flat-map.js": 72,
                    "es.function.bind.js": 116,
                    "es.function.name.js": 274,
                    "es.function.has-instance.js": 405,
                    "es.math.acosh.js": 303,
                    "es.math.asinh.js": 209,
                    "es.math.atanh.js": 178,
                    "es.math.cbrt.js": 173,
                    "es.math.clz32.js": 166,
                    "es.math.cosh.js": 225,
                    "es.math.expm1.js": 134,
                    "es.math.fround.js": 111,
                    "es.math.hypot.js": 303,
                    "es.math.imul.js": 282,
                    "es.math.log10.js": 134,
                    "es.math.log1p.js": 109,
                    "es.math.log2.js": 130,
                    "es.math.sign.js": 107,
                    "es.math.sinh.js": 295,
                    "es.math.tanh.js": 203,
                    "es.math.trunc.js": 139,
                    "es.object.assign.js": 144,
                    "es.object.create.js": 153,
                    "es.object.define-property.js": 186,
                    "es.object.define-properties.js": 188,
                    "es.object.entries.js": 155,
                    "es.object.freeze.js": 310,
                    "es.object.from-entries.js": 232,
                    "es.object.get-own-property-descriptor.js": 335,
                    "es.object.get-own-property-descriptors.js": 414,
                    "es.object.get-own-property-names.js": 248,
                    "es.object.get-prototype-of.js": 305,
                    "es.object.is.js": 108,
                    "es.object.is-extensible.js": 238,
                    "es.object.is-frozen.js": 228,
                    "es.object.is-sealed.js": 228,
                    "es.object.keys.js": 228,
                    "es.object.prevent-extensions.js": 332,
                    "es.object.seal.js": 306,
                    "es.object.set-prototype-of.js": 133,
                    "es.object.values.js": 153,
                    "es.object.define-getter.js": 382,
                    "es.object.define-setter.js": 382,
                    "es.object.lookup-getter.js": 452,
                    "es.object.lookup-setter.js": 452,
                    "es.regexp.constructor.js": 2296,
                    "es.regexp.to-string.js": 457,
                    "es.regexp.dot-all.js": 375,
                    "es.regexp.exec.js": 149,
                    "es.regexp.flags.js": 332,
                    "es.regexp.sticky.js": 384,
                    "es.regexp.test.js": 484,
                    "es.string.match.js": 692,
                    "es.string.replace.js": 1524,
                    "es.string.search.js": 575,
                    "es.string.split.js": 2237,
                    "es.string.from-code-point.js": 423,
                    "es.string.raw.js": 304,
                    "es.string.code-point-at.js": 178,
                    "es.string.ends-with.js": 639,
                    "es.string.includes.js": 334,
                    "es.string.match-all.js": 2041,
                    "es.string.pad-end.js": 252,
                    "es.string.pad-start.js": 256,
                    "es.string.repeat.js": 116,
                    "es.string.replace-all.js": 938,
                    "es.string.starts-with.js": 623,
                    "es.string.substr.js": 375,
                    "es.string.trim.js": 215,
                    "es.string.trim-start.js": 260,
                    "es.string.trim-end.js": 253,
                    "es.string.anchor.js": 228,
                    "es.string.big.js": 220,
                    "es.string.blink.js": 226,
                    "es.string.bold.js": 220,
                    "es.string.fixed.js": 223,
                    "es.string.fontcolor.js": 238,
                    "es.string.fontsize.js": 235,
                    "es.string.italics.js": 226,
                    "es.string.link.js": 224,
                    "es.string.small.js": 226,
                    "es.string.strike.js": 229,
                    "es.string.sub.js": 220,
                    "es.string.sup.js": 220,
                    "es.weak-map.js": 1200,
                    "es.weak-set.js": 197,
                    "es.number.epsilon.js": 98,
                    "es.number.is-finite.js": 120,
                    "es.number.is-integer.js": 115,
                    "es.number.is-nan.js": 107,
                    "es.number.is-safe-integer.js": 183,
                    "es.number.max-safe-integer.js": 108,
                    "es.number.min-safe-integer.js": 109,
                    "es.number.parse-float.js": 156,
                    "es.number.parse-int.js": 150,
                    "es.typed-array.uint8-array.js": 133,
                    "es.typed-array.uint32-array.js": 134
                  },
                  "internals": {
                    "export.js": 612,
                    "global.js": 264,
                    "object-get-own-property-descriptor.js": 428,
                    "descriptors.js": 144,
                    "fails.js": 76,
                    "object-property-is-enumerable.js": 178,
                    "create-property-descriptor.js": 113,
                    "to-indexed-object.js": 140,
                    "indexed-object.js": 225,
                    "classof-raw.js": 88,
                    "require-object-coercible.js": 104,
                    "to-primitive.js": 354,
                    "is-object.js": 96,
                    "has.js": 136,
                    "to-object.js": 110,
                    "ie8-dom-define.js": 231,
                    "document-create-element.js": 173,
                    "create-non-enumerable-property.js": 229,
                    "object-define-property.js": 359,
                    "an-object.js": 140,
                    "redefine.js": 684,
                    "set-global.js": 163,
                    "inspect-source.js": 185,
                    "shared-store.js": 131,
                    "internal-state.js": 968,
                    "native-weak-map.js": 153,
                    "shared-key.js": 133,
                    "shared.js": 259,
                    "is-pure.js": 31,
                    "uid.js": 131,
                    "hidden-keys.js": 31,
                    "copy-constructor-properties.js": 279,
                    "own-keys.js": 284,
                    "get-built-in.js": 222,
                    "path.js": 61,
                    "object-get-own-property-names.js": 187,
                    "object-keys-internal.js": 306,
                    "array-includes.js": 363,
                    "to-length.js": 125,
                    "to-integer.js": 104,
                    "to-absolute-index.js": 138,
                    "enum-bug-keys.js": 138,
                    "object-get-own-property-symbols.js": 49,
                    "is-forced.js": 279,
                    "is-array.js": 114,
                    "create-property.js": 226,
                    "array-species-create.js": 320,
                    "well-known-symbol.js": 359,
                    "native-symbol.js": 217,
                    "engine-v8-version.js": 266,
                    "engine-user-agent.js": 96,
                    "use-symbol-as-uid.js": 106,
                    "array-method-has-species-support.js": 281,
                    "to-string-tag-support.js": 124,
                    "object-to-string.js": 172,
                    "classof.js": 435,
                    "object-create.js": 954,
                    "object-define-properties.js": 284,
                    "object-keys.js": 149,
                    "html.js": 97,
                    "object-get-own-property-names-external.js": 363,
                    "well-known-symbol-wrapped.js": 64,
                    "define-well-known-symbol.js": 245,
                    "set-to-string-tag.js": 234,
                    "array-iteration.js": 720,
                    "function-bind-context.js": 358,
                    "a-function.js": 122,
                    "collection.js": 1517,
                    "internal-metadata.js": 700,
                    "freezing.js": 133,
                    "iterate.js": 885,
                    "is-array-iterator-method.js": 190,
                    "iterators.js": 31,
                    "get-iterator-method.js": 204,
                    "iterator-close.js": 130,
                    "an-instance.js": 131,
                    "check-correctness-of-iteration.js": 380,
                    "inherit-if-required.js": 229,
                    "object-set-prototype-of.js": 368,
                    "a-possible-prototype.js": 161,
                    "collection-strong.js": 2315,
                    "redefine-all.js": 116,
                    "define-iterator.js": 1372,
                    "create-iterator-constructor.js": 370,
                    "iterators-core.js": 531,
                    "object-get-prototype-of.js": 372,
                    "correct-prototype-getter.js": 169,
                    "set-species.js": 302,
                    "string-multibyte.js": 386,
                    "dom-iterables.js": 530,
                    "add-to-unscopables.js": 261,
                    "array-from.js": 718,
                    "call-with-safe-iteration-closing.js": 173,
                    "array-copy-within.js": 403,
                    "array-method-is-strict.js": 164,
                    "array-fill.js": 311,
                    "flatten-into-array.js": 399,
                    "array-for-each.js": 229,
                    "array-last-index-of.js": 479,
                    "array-reduce.js": 462,
                    "engine-is-node.js": 115,
                    "array-sort.js": 421,
                    "engine-ff-version.js": 108,
                    "engine-is-ie-or-edge.js": 93,
                    "engine-webkit-version.js": 113,
                    "function-bind.js": 487,
                    "math-log1p.js": 112,
                    "math-sign.js": 88,
                    "math-expm1.js": 197,
                    "math-fround.js": 287,
                    "object-assign.js": 818,
                    "object-to-array.js": 358,
                    "same-value.js": 96,
                    "object-prototype-accessors-forced.js": 283,
                    "is-regexp.js": 214,
                    "regexp-flags.js": 237,
                    "regexp-sticky-helpers.js": 266,
                    "regexp-unsupported-dot-all.js": 148,
                    "regexp-unsupported-ncg.js": 171,
                    "regexp-exec.js": 1402,
                    "fix-regexp-well-known-symbol-logic.js": 817,
                    "advance-string-index.js": 135,
                    "regexp-exec-abstract.js": 363,
                    "get-substitution.js": 566,
                    "species-constructor.js": 228,
                    "not-a-regexp.js": 157,
                    "correct-is-regexp-logic.js": 180,
                    "string-pad.js": 378,
                    "string-repeat.js": 280,
                    "string-pad-webkit-bug.js": 145,
                    "string-trim.js": 305,
                    "whitespaces.js": 107,
                    "string-trim-forced.js": 181,
                    "create-html.js": 213,
                    "string-html-forced.js": 162,
                    "collection-weak.js": 1498,
                    "number-is-finite.js": 133,
                    "is-integer.js": 125,
                    "number-parse-float.js": 244,
                    "number-parse-int.js": 268,
                    "typed-array-constructor.js": 3176,
                    "typed-array-constructors-require-wrappers.js": 413,
                    "array-buffer-view-core.js": 2213,
                    "array-buffer-native.js": 90,
                    "array-buffer.js": 3777,
                    "to-index.js": 207,
                    "ieee754.js": 819,
                    "to-offset.js": 147,
                    "to-positive-integer.js": 157,
                    "typed-array-from.js": 584
                  }
                }
              }
            }
          }
        }
      }
    ],
    "packages/base64.js": [
      1999,
      {
        "node_modules": {
          "meteor": {
            "base64": {
              "base64.js": 1510
            }
          }
        }
      }
    ],
    "packages/ejson.js": [
      8075,
      {
        "node_modules": {
          "meteor": {
            "ejson": {
              "ejson.js": 5357,
              "stringify.js": 974,
              "utils.js": 1209
            }
          }
        }
      }
    ],
    "packages/diff-sequence.js": [
      3095,
      {
        "node_modules": {
          "meteor": {
            "diff-sequence": {
              "diff.js": 2559
            }
          }
        }
      }
    ],
    "packages/geojson-utils.js": [
      5226,
      {
        "node_modules": {
          "meteor": {
            "geojson-utils": {
              "main.js": 50,
              "geojson-utils.js": 4805
            }
          }
        }
      }
    ],
    "packages/id-map.js": [
      1935,
      {
        "node_modules": {
          "meteor": {
            "id-map": {
              "id-map.js": 1423
            }
          }
        }
      }
    ],
    "packages/random.js": [
      4685,
      {
        "node_modules": {
          "meteor": {
            "random": {
              "main_client.js": 345,
              "AbstractRandomGenerator.js": 928,
              "AleaRandomGenerator.js": 1229,
              "BrowserRandomGenerator.js": 452,
              "createAleaGenerator.js": 691,
              "createRandom.js": 411
            }
          }
        }
      }
    ],
    "packages/mongo-id.js": [
      2305,
      {
        "node_modules": {
          "meteor": {
            "mongo-id": {
              "id.js": 1769
            }
          }
        }
      }
    ],
    "packages/ordered-dict.js": [
      4017,
      {
        "node_modules": {
          "meteor": {
            "ordered-dict": {
              "ordered_dict.js": 3491
            }
          }
        }
      }
    ],
    "packages/tracker.js": [
      5301,
      {
        "node_modules": {
          "meteor": {
            "tracker": {
              "tracker.js": 4801
            }
          }
        }
      }
    ],
    "packages/minimongo.js": [
      48130,
      {
        "node_modules": {
          "meteor": {
            "minimongo": {
              "minimongo_client.js": 50,
              "common.js": 13450,
              "cursor.js": 5106,
              "local_collection.js": 21425,
              "matcher.js": 3099,
              "minimongo_common.js": 237,
              "observe_handle.js": 102,
              "sorter.js": 3699
            }
          }
        }
      }
    ],
    "packages/check.js": [
      6643,
      {
        "node_modules": {
          "meteor": {
            "check": {
              "match.js": 5779,
              "isPlainObject.js": 329
            }
          }
        }
      }
    ],
    "packages/retry.js": [
      1479,
      {
        "node_modules": {
          "meteor": {
            "retry": {
              "retry.js": 972
            }
          }
        }
      }
    ],
    "packages/callback-hook.js": [
      1856,
      {
        "node_modules": {
          "meteor": {
            "callback-hook": {
              "hook.js": 1350
            }
          }
        }
      }
    ],
    "packages/ddp-common.js": [
      5500,
      {
        "node_modules": {
          "meteor": {
            "ddp-common": {
              "namespace.js": 18,
              "heartbeat.js": 1693,
              "utils.js": 1559,
              "method_invocation.js": 589,
              "random_stream.js": 692
            }
          }
        }
      }
    ],
    "packages/reload.js": [
      3008,
      {
        "node_modules": {
          "meteor": {
            "reload": {
              "reload.js": 2519
            }
          }
        }
      }
    ],
    "packages/socket-stream-client.js": [
      37999,
      {
        "node_modules": {
          "meteor": {
            "socket-stream-client": {
              "sockjs-0.3.4.js": 30241,
              "browser.js": 3465,
              "common.js": 2902,
              "urls.js": 801
            }
          }
        }
      }
    ],
    "packages/ddp-client.js": [
      25390,
      {
        "node_modules": {
          "meteor": {
            "ddp-client": {
              "client": {
                "client.js": 136,
                "client_convenience.js": 851
              },
              "common": {
                "MethodInvoker.js": 1381,
                "livedata_connection.js": 21066,
                "namespace.js": 997
              }
            }
          }
        }
      }
    ],
    "packages/ddp.js": 78,
    "packages/ddp-server.js": 30,
    "packages/allow-deny.js": [
      6088,
      {
        "node_modules": {
          "meteor": {
            "allow-deny": {
              "allow-deny.js": 5418
            }
          }
        }
      }
    ],
    "packages/logging.js": [
      4491,
      {
        "node_modules": {
          "meteor": {
            "logging": {
              "logging.js": 3848,
              "logging_browser.js": 53
            }
          }
        }
      }
    ],
    "packages/mongo.js": [
      9831,
      {
        "node_modules": {
          "meteor": {
            "mongo": {
              "local_collection_driver.js": 440,
              "collection.js": 8448
            }
          }
        }
      }
    ],
    "packages/blaze-html-templates.js": 40,
    "packages/jquery.js": [
      98564,
      {
        "node_modules": {
          "meteor": {
            "jquery": {
              "main.js": 124,
              "jquery.js": 98094
            }
          }
        }
      }
    ],
    "packages/reactive-var.js": 818,
    "packages/minifier-css.js": 66,
    "packages/standard-minifier-css.js": 41,
    "packages/standard-minifier-js.js": 40,
    "packages/typescript.js": 30,
    "packages/shell-server.js": 32,
    "packages/reactive-dict.js": [
      4680,
      {
        "node_modules": {
          "meteor": {
            "reactive-dict": {
              "migration.js": 821,
              "reactive-dict.js": 3244
            }
          }
        }
      }
    ],
    "packages/session.js": [
      710,
      {
        "node_modules": {
          "meteor": {
            "session": {
              "session.js": 153
            }
          }
        }
      }
    ],
    "packages/underscore.js": 14437,
    "packages/kadira_flow-router.js": [
      25975,
      {
        "node_modules": {
          "meteor": {
            "kadira:flow-router": {
              "client": {
                "modules.js": 36,
                "triggers.js": 997,
                "router.js": 6778,
                "group.js": 1064,
                "route.js": 1809,
                "_init.js": 98
              },
              "lib": {
                "router.js": 159
              },
              "node_modules": {
                "page": {
                  "package.json": 58,
                  "index.js": 4648,
                  "node_modules": {
                    "path-to-regexp": {
                      "package.json": 68,
                      "index.js": 2767,
                      "node_modules": {
                        "isarray": {
                          "package.json": 77,
                          "index.js": 114
                        }
                      }
                    }
                  }
                },
                "qs": {
                  "package.json": 76,
                  "lib": {
                    "index.js": 88,
                    "stringify.js": 1609,
                    "utils.js": 1840,
                    "parse.js": 2423
                  }
                }
              }
            }
          }
        }
      }
    ],
    "packages/observe-sequence.js": 3562,
    "packages/htmljs.js": [
      13076,
      {
        "node_modules": {
          "meteor": {
            "htmljs": {
              "preamble.js": 1453,
              "html.js": 5062,
              "visitors.js": 6044
            }
          }
        }
      }
    ],
    "packages/blaze.js": [
      50356,
      {
        "node_modules": {
          "meteor": {
            "blaze": {
              "preamble.js": 523,
              "dombackend.js": 1760,
              "domrange.js": 6005,
              "events.js": 2017,
              "attrs.js": 4139,
              "materializer.js": 2150,
              "exceptions.js": 491,
              "view.js": 10282,
              "builtins.js": 4115,
              "lookup.js": 2579,
              "template.js": 5640,
              "backcompat.js": 246,
              "node_modules": {
                "lodash.has": {
                  "package.json": 64,
                  "index.js": 5016
                },
                "lodash.isobject": {
                  "package.json": 69,
                  "index.js": 99
                },
                "lodash.isfunction": {
                  "package.json": 71,
                  "index.js": 774
                },
                "lodash.isempty": {
                  "package.json": 68,
                  "index.js": 2650
                }
              }
            }
          }
        }
      }
    ],
    "packages/spacebars.js": 2926,
    "packages/templating-compiler.js": 39,
    "packages/templating-runtime.js": [
      10165,
      {
        "node_modules": {
          "meteor": {
            "templating-runtime": {
              "templating.js": 2238,
              "template.dynamic.js": 1401,
              "dynamic.js": 569,
              "node_modules": {
                "lodash.has": {
                  "package.json": 64,
                  "index.js": 5016
                }
              }
            }
          }
        }
      }
    ],
    "packages/templating.js": 103,
    "packages/kadira_blaze-layout.js": 2064,
    "packages/webapp.js": [
      881,
      {
        "node_modules": {
          "meteor": {
            "webapp": {
              "webapp_client.js": 378
            }
          }
        }
      }
    ],
    "packages/hot-code-push.js": 33,
    "packages/launch-screen.js": 71,
    "packages/ui.js": 137,
    "packages/autoupdate.js": [
      4117,
      {
        "node_modules": {
          "meteor": {
            "autoupdate": {
              "autoupdate_client.js": 1979,
              "client_versions.js": 1490
            }
          }
        }
      }
    ],
    "app/global-imports.js": [
      1047,
      {}
    ],
    "app/app.js": [
      20976,
      {
        "import": {
          "ui": {
            "body.html": 58,
            "template.body.js": 330,
            "search.html": 60,
            "template.search.js": 1581,
            "world.html": 59,
            "template.world.js": 7110,
            "body.js": 259,
            "search.js": 543,
            "world.js": 7909
          },
          "api": {
            "userinfo.js": 1493
          }
        },
        "lib": {
          "routes.js": 923
        },
        "client": {
          "main.js": 49
        }
      }
    ]
  }
}
